<?xml version="1.0" encoding="utf-8"?>
<!-- Generator: Adobe Illustrator 23.0.0, SVG Export Plug-In . SVG Version: 6.00 Build 0)  -->
<svg version="1.1" id="Слой_1" xmlns="http://www.w3.org/2000/svg" xmlns:xlink="http://www.w3.org/1999/xlink" x="0px" y="0px"
	 viewBox="0 0 10 8" style="enable-background:new 0 0 10 8;" xml:space="preserve">
<style type="text/css">
	.st0{fill:#14295E;}
</style>
<path class="st0" d="M5,0C2.2,0,0,1.7,0,3.7C0,4.6,0.4,5.4,1.1,6C0.9,6.9,0.1,7.8,0,7.8c0,0-0.1,0.1,0,0.2C0,8,0.1,8,0.2,8
	c1.3,0,2.3-0.6,2.7-0.9C3.5,7.3,4.3,7.4,5,7.4c2.8,0,5-1.7,5-3.7S7.8,0,5,0z"/>
</svg>
