<?xml version="1.0" encoding="utf-8"?>
<!-- Generator: Adobe Illustrator 23.0.0, SVG Export Plug-In . SVG Version: 6.00 Build 0)  -->
<svg version="1.1" id="Capa_1" xmlns="http://www.w3.org/2000/svg" xmlns:xlink="http://www.w3.org/1999/xlink" x="0px" y="0px"
	 viewBox="0 0 6 10" style="enable-background:new 0 0 6 10;" xml:space="preserve">
<style type="text/css">
	.st0{fill:#737373;}
</style>
<g>
	<path class="st0" d="M0.1,9.5C0,9.6,0,9.8,0.1,9.9C0.2,10,0.2,10,0.3,10s0.2,0,0.2-0.1l5.4-4.7C6,5.1,6,4.9,5.9,4.8L0.5,0.1
		C0.4,0,0.2,0,0.1,0.1S0,0.4,0.1,0.5L5.2,5L0.1,9.5z"/>
</g>
</svg>
