<?xml version="1.0" encoding="utf-8"?>
<!-- Generator: Adobe Illustrator 23.0.0, SVG Export Plug-In . SVG Version: 6.00 Build 0)  -->
<svg version="1.1" id="Слой_1" xmlns="http://www.w3.org/2000/svg" xmlns:xlink="http://www.w3.org/1999/xlink" x="0px" y="0px"
	 viewBox="0 0 8 10" style="enable-background:new 0 0 8 10;" xml:space="preserve">
<style type="text/css">
	.st0{fill:#9CA3B5;}
</style>
<path class="st0" d="M4,5c1.3,0,2.3-1.1,2.3-2.5S5.3,0,4,0S1.7,1.1,1.7,2.5S2.7,5,4,5z M5.6,5.6H5.3C4.9,5.8,4.5,5.9,4,5.9
	S3.1,5.8,2.7,5.6H2.4C1.1,5.6,0,6.8,0,8.3v0.8C0,9.6,0.4,10,0.9,10h6.3C7.6,10,8,9.6,8,9.1V8.3C8,6.8,6.9,5.6,5.6,5.6z"/>
</svg>
